RegistrarJugador
- caso1 1 jugadores
	pedir numero de jugadores (1) (Lista de 1 jugador)
	pedir nombre c/j: String
	Guardar jugadores
	resultado esperado true con 1 jugador
- caso2 3 jugadores
	pedir numero de jugadores (3) (Lista de 3 jugador)
	pedir nombre c/j: String
	Guardar jugadores
	resultado esperado true con 3 jugadores
- caso3 5 jugadores
	pedir numero de jugadores (0) (Lista de 0 jugador)
	pedir nombre c/j: String
	Guardar jugadores
	resultado esperado false 0 jugadores, lista vacia
Lanzar
Comun
- caso1 dos lanzamientos 0 y 5 puntos
	Colocar lanzamiento uno puntos = 0
	Colocar lanzamiento uno puntos = 5
	Sumar lanzamientos 0 + 5 = 5
	resultado esperado = 5;
- caso2 dos lanzamientos 7 y 1 puntos
	Colocar lanzamiento uno puntos = 7
	Colocar lanzamiento uno puntos = 1
	Sumar lanzamientos 7 + 1 = 8
	resultado esperado = 8;
- caso3 dos lanzamientos 0 y 0 puntos
	Colocar lanzamiento uno puntos = 0
	Colocar lanzamiento uno puntos = 0
	Sumar lanzamientos 0 + 0 = 0
	resultado esperado = 0;
Spare
- caso1 dos lanzamientos 7 y 3 puntos
	Colocar lanzamiento uno puntos = 7
	Colocar lanzamiento uno puntos = 1
	Sumar lanzamientos 7 + 3 = 10
	resultado esperado = 10; formula 10 + next
- caso2 dos lanzamientos 0 y 10 puntos
	Colocar lanzamiento uno puntos = 0
	Colocar lanzamiento uno puntos = 10
	Sumar lanzamientos 0 + 10 = 10
	resultado esperado = 10; formula 10 + next
Strike
- caso1 un lanzamientos 10 puntos
	Colocar lanzamiento uno puntos = 10
	No esperar mas lanzamientos
	resultado esperado = 10; formula 10 + next + next
ObtenerPuntaje
- obtenerPuntajeNoSpareStrike
	lanzamiento1(5 y 3) = 8
	lanzamiento2(0 y 1) = 1
	lanzamiento3(4 y 5) = 9
	lanzamiento4(0 y 0) = 0
	lanzamiento5(6 y 2) = 8
	Puyntaje total esp= 26
- obtenerPuntajeNoStrikeSiSpare
	lanzamiento1(5 y 5) = 10 + next = 10 + 0 = 10
	lanzamiento2(0 y 10) = 10 + punAnt = 10 + 10 = 20 + next = 20 + 4 = 24
	lanzamiento3(4 y 6) = 10 + punAnt = 10 + 24 = 34 + next = 34 + 2 = 36
	lanzamiento4(2 y 5) = 7 + punAnt = 7 + 36 = 43
	lanzamiento5(6 y 2) = 8 + punAtn = 8 + 43 = 51
	Puyntaje total esp= 51
-  obtenerPuntajeNoSpireSiStrake
	lanzamiento1(10) = 10 + next + next = 10 + 4 + 5 = 19
	lanzamiento2(4 + 5) = 9 + punAnt = 9 + 19 = 28
	lanzamiento3(10) = 10 + punAnt = 10 + 28 = 38 + next + next = 38 + 10 + 6 = 54
	lanzamiento4(10) = 10 + 54 = 64 + 6 + 2 = 72
	lanzamiento5(6 y 2) = 8 + punAnt = 8 + 72 = 80
	Puyntaje total esp= 80
- obtenerPuntajeNoStrikeSiSpare
	lanzamiento1(5 y 5) = 10 + next = 10 + 0 = 10
	lanzamiento2(0 y 10) = 10 + punAnt = 10 + 10 = 20 + next = 20 + 4 = 24
	lanzamiento3(4 y 6) = 10 + punAnt = 10 + 24 = 34 + next = 34 + 2 = 36
	lanzamiento4(2 y 5) = 7 + punAnt = 7 + 36 = 42
	lanzamiento5(6 y 4) = 10 + punAtn = 10 + 42 = 52 + next = 57
	lanzamiento6(5)
	Puyntaje total esp= 57
-  obtenerPuntajeNoSpireSiStrake
	lanzamiento1(10) = 10 + next + next = 10 + 4 + 5 = 19
	lanzamiento2(4 + 5) = 9 + punAnt = 9 + 19 = 28
	lanzamiento3(10) = 10 + punAnt = 10 + 28 = 38 + next + next = 38 + 6 + 2 = 54
	lanzamiento5(6 y 2) = 8 + punAnt = 8 + 54 = 62
	lanzamiento4(10) = 10 + 62 = 72 + 6 + 2 = 80
	lanzamiento5(6 y 2)
	Puyntaje total esp= 80
-  obtenerPuntajeNoSpireSiStrake
	lanzamiento1(10) = 10 + next + next = 10 + 4 + 5 = 19
	lanzamiento2(10) = 10 + next + next =
	lanzamiento3(10) = 10 + next + next =
	lanzamiento4(10) = 10 + next + next =
	lanzamiento5(10) = 10 + next + next =
	Puyntaje total esp= 80

CLASE JUGADOR
	NOMBRE
	PUNTAJE

ALEATORIO (0-10) = 8
ALEATORIO (0-10-8) = 2
PUNTAJE 8
10 + FORMULA = 10 + NEXT A MENOS QUE SEA STRIKE

SPIRE = PUNTAJE  anterior + actual + 1 siguientes
strike = puntaje anterior + actual + 2 siguientes
PUNTAJE ANTERIOR + ACTUAL

frame 10 (especial) = puntaje + total tiro, pero si hce 10, hago un tiro mas, pero solo para sumar eso!!


Jugador1
lanzar 1 = 10
	0 + 10 + NEXT + NEXT =  10+9 = 19
lanzar 2 = 4 - 5
	19 + 9 = 28
lanzar 3 = 10
	28 + 10 + NEXT + NEXT = 46
lanzar 4 = 6 - 2
	46 + 8 = 54
lanzar 5 = 10
	54 + 10 + NEXT + NEXT = 72
lanzar 6 = 6 - 2
	72 + 8 = 80
